{
    "result": [{
        "question_id": "21",
            "question": "วันนี้คุณรู้สึกอย่างไรบ้างคะ",
            "type": "good",
            "answer": [{
                    "ans1": "test 1"
                },
                {
                    "ans2": "test 2"
                },
                {
                    "ans3": "test 3"
                },
                {
                    "ans4": "test 4"
                },
                {
                    "ans5": "test 5"
                },
                {
                    "ans6": "test 6"
                }
            ]
        },
        {
            "question_id": "22",
            "question": "วันนี้คุณรู้สึกเครียดมากไหมคะ",
            "type": "medium",
            "answer": [{
                    "ans1": "test"
                },
                {
                    "ans2": "test"
                },
                {
                    "ans3": "test"
                },
                {
                    "ans4": "test"
                },
                {
                    "ans5": "test"
                },
                {
                    "ans6": "test"
                }
            ]
        },
        {
            "question_id": "23",
            "question": "วันนี้คุณรู้สึกเหนื่อยมากไหมคะ",
            "type": "bad",
            "answer": [{
                    "ans1": "test"
                },
                {
                    "ans2": "test"
                },
                {
                    "ans3": "test"
                },
                {
                    "ans4": "test"
                },
                {
                    "ans5": "test"
                },
                {
                    "ans6": "test"
                }
            ]
        }
    ]
}